module github.com/plac/challenge

go 1.12

require (
	github.com/PuerkitoBio/goquery v1.5.0 // indirect
	github.com/antchfx/htmlquery v1.1.0 // indirect
	github.com/antchfx/xmlquery v1.1.0 // indirect
	github.com/antchfx/xpath v1.1.0 // indirect
	github.com/gobwas/glob v0.2.3 // indirect
	github.com/gocolly/colly v1.2.0
	github.com/kennygrant/sanitize v1.2.4 // indirect
	github.com/saintfish/chardet v0.0.0-20120816061221-3af4cd4741ca // indirect
	github.com/stretchr/testify v1.3.0
	github.com/temoto/robotstxt v1.1.1 // indirect
	golang.org/x/net v0.0.0-20191021144547-ec77196f6094 // indirect
	google.golang.org/appengine v1.6.5 // indirect
)
